Ejemplos practicos R - Ejemplo 7
…
    filter, lag

The following objects are masked from 'package:base':

    intersect, setdiff, setequal, union

library(readxl)

La librería readxl se utiliza para leer archivos de Excel en R.

datos<- read_excel("C:/Users/itzi2/Downloads/dp-gallery-link.xlsx")
datos

# A tibble: 37 × 4
     `#` Area               Category       Link                                 
   <dbl> <chr>              <chr>          <chr>                                
 1     1 Health             Cadio Vascular https://dataspeople.ai/post/gallery/…
 2     2 Agriculture        Wine           https://dataspeople.ai/post/gallery/…
 3     3 World Economic     Wolrd Econimic https://dataspeople.ai/post/gallery/…
 4     4 Financial Services Credit         https://dataspeople.ai/post/gallery/…
 5     5 Insurance          Cars Loss      https://dataspeople.ai/post/gallery/…
 6     6 Logistic           Supply Chain   https://dataspeople.ai/post/gallery/…
 7     7 Ambient            Forest Fire    https://dataspeople.ai/post/gallery/…
 8     8 Retail-Sales       Supermarket    https://dataspeople.ai/post/gallery/…
 9     9 Health             Disease        https://dataspeople.ai/post/gallery/…
10    10 Real Estate        Real Estate    https://dataspeople.ai/post/gallery/…
# ℹ 27 more rows
…
