Ejemplos practicos R -
…
length(palabras[[1]])

[1] 101

Es posible calcular cuántas veces se utilizó cada palabra en el texto. Para hacer esto, primero aplicamos la función table(tabla) a las palabras en el primer (y aquí, único) documento y después separamos los nombres y los valores de la tabla en un único objeto llamado marco de datos (data frame).

tabla <- table(palabras[[1]])
tabla <- data_frame(palabra = names(tabla), recuento = as.numeric(tabla))

Warning: `data_frame()` was deprecated in tibble 1.1.0.
ℹ Please use `tibble()` instead.

tabla

# A tibble: 70 × 2
   palabra   recuento
   <chr>        <dbl>
 1 a                4
 2 adicción         1
 3 adoptaron        1
 4 año              3
 5 aprecio          1
 6 aprobar          1
 7 así              2
 8 aún              1
 9 ayudar           1
10 bajas            1
# ℹ 60 more rows

Ordenar datos usando la función arrange(organizar). Esta función toma el conjunto de datos sobre el que trabajar, aquí tabla, y después el nombre de la columna que toma como referencia para ordenarlo. La función desc en el segundo argumento indica que queremos clasificar en orden descendiente.

arrange(tabla, desc(recuento))

# A tibble: 70 × 2
   palabra recuento
   <chr>      <dbl>
 1 de             7
 2 que            6
 3 la             5
 4 a              4
 5 año            3
 6 los            3
 7 para           3
 8 y              3
 9 así            2
10 como           2
# ℹ 60 more rows
…
