Ejemplos practicos R - Untitled
…
Untitled

    Published

      August 10, 2023

library(stringr)
library(readxl)
library(DT)
library(ggplot2)

tabla <- read_excel("C:/Users/itzi2/Documents/ejemplos/Ejemplos practicos R/datos_energia-taller-con-datos-fotovoltaicas.xlsx")
tabla

# A tibble: 80 × 7
   TIPO    `ID-PLANTA` CaPacidad Instalada …¹ `%CI` GENERACIÓN BRUTAL (G…² `%GB`
   <chr>   <chr>                        <dbl> <dbl>                  <dbl> <dbl>
 1 HIDROE… 1-acp                        60     1.51                 274.    2.32
 2 HIDROE… 2-AES Pana…                 482.   12.1                 1523.   12.9 
 3 HIDROE… 3-AES CHAN…                 222.    5.58                1058.    8.93
 4 HIDROE… 4-ALTO VAL…                  15.5   0.39                  75.9   0.64
 5 HIDROE… 5-cafe de …                   0.53  0.01                   1.64  0.01
 6 HIDROE… 6-CALDERA …                  19.8   0.5                  100.    0.84
 7 HIDROE… 7-CELSIA  …                  92.5   2.32                 372.    3.14
 8 HIDROE… 8-CELSIA  …                  25.3   0.64                  87.1   0.74
 9 HIDROE… 9-CORP. EN…                  19.8   0.5                   93.4   0.79
10 HIDROE… 10-EISA  E…                  84.6   2.13                 515.    4.35
# ℹ 70 more rows
# ℹ abbreviated names: ¹​`CaPacidad Instalada MW`, ²​`GENERACIÓN BRUTAL (GWh)`
# ℹ 1 more variable: `CAPACIDAD FIRME MW` <dbl>
…
Eliminar espación vacios

datos_sin_vacios <- tabla[complete.cases(tabla), ]
datos_sin_vacios %>% datatable(datos_sin_vacios)

Columna a eliminar números y guiones

nombre_columna <- "ID-PLANTA"

Eliminar números de los datos. La función gsub(“\d|-”, ““, datos[[nombre_columna]]) reemplaza tanto los dígitos (números) como los guiones en la columna por una cadena vacía.

datos_sin_vacios[[nombre_columna]] <- gsub("\\d|-", "", datos_sin_vacios [[nombre_columna]])
datos_sin_vacios 

# A tibble: 72 × 7
   TIPO    `ID-PLANTA` CaPacidad Instalada …¹ `%CI` GENERACIÓN BRUTAL (G…² `%GB`
   <chr>   <chr>                        <dbl> <dbl>                  <dbl> <dbl>
 1 HIDROE… acp                          60     1.51                 274.    2.32
 2 HIDROE… AES Panama                  482.   12.1                 1523.   12.9 
 3 HIDROE… AES CHANGU…                 222.    5.58                1058.    8.93
 4 HIDROE… ALTO VALLE…                  15.5   0.39                  75.9   0.64
 5 HIDROE… cafe de el…                   0.53  0.01                   1.64  0.01
 6 HIDROE… CALDERA EN…                  19.8   0.5                  100.    0.84
 7 HIDROE… CELSIA  AL…                  92.5   2.32                 372.    3.14
 8 HIDROE… CELSIA  BO…                  25.3   0.64                  87.1   0.74
 9 HIDROE… CORP. ENER…                  19.8   0.5                   93.4   0.79
10 HIDROE… EISA  ELEC…                  84.6   2.13                 515.    4.35
# ℹ 62 more rows
# ℹ abbreviated names: ¹​`CaPacidad Instalada MW`, ²​`GENERACIÓN BRUTAL (GWh)`
# ℹ 1 more variable: `CAPACIDAD FIRME MW` <dbl>
…
 [1]  1 33 34 35 36 37 38 39 40 41 42 43 44 45 46 47 48 49 50 51 52 53 54 55 56
[26] 57 58 61 63 65 68 70 71 72

Variables de columnas a minúscula

En este código, el paquete readxl se carga usando library(). Luego, el archivo de Excel se lee en R usando la función read_excel(). Los nombres de las columnas se convierten a minúsculas usando la función tolower(). Los nuevos nombres de las columnas se aplican al objeto datos_excel usando la función colnames(). Finalmente, el archivo de Excel con los nuevos nombres de las columnas se guarda usando la función write.xlsx().

# Convertir los nombres de las columnas a minúsculas
colnames(datos_sin_vacios) <- tolower(colnames(datos_sin_vacios))
datos_sin_vacios

# A tibble: 72 × 7
   tipo    `id-planta` capacidad instalada …¹ `%ci` generación brutal (g…² `%gb`
   <chr>   <chr>                        <dbl> <dbl>                  <dbl> <dbl>
 1 HIDROE… acp                          60     1.51                 274.    2.32
 2 HIDROE… AES Panama                  482.   12.1                 1523.   12.9 
 3 HIDROE… AES CHANGU…                 222.    5.58                1058.    8.93
 4 HIDROE… ALTO VALLE…                  15.5   0.39                  75.9   0.64
 5 HIDROE… cafe de el…                   0.53  0.01                   1.64  0.01
 6 HIDROE… CALDERA EN…                  19.8   0.5                  100.    0.84
 7 HIDROE… CELSIA  AL…                  92.5   2.32                 372.    3.14
 8 HIDROE… CELSIA  BO…                  25.3   0.64                  87.1   0.74
 9 HIDROE… CORP. ENER…                  19.8   0.5                   93.4   0.79
10 HIDROE… EISA  ELEC…                  84.6   2.13                 515.    4.35
# ℹ 62 more rows
# ℹ abbreviated names: ¹​`capacidad instalada mw`, ²​`generación brutal (gwh)`
# ℹ 1 more variable: `capacidad firme mw` <dbl>

Texto en primera letra mayúscula y las demas siguiente en minuscula

En este código, el paquete R.utils se carga mediante library(R.utils). Un vector de caracteres nombre_columna se crea con dos elementos. La función capitalize() se usa para poner en mayúscula la primera letra de cada palabra en nombre_columna

library(R.utils)
# Capitalize the first letter of each word

nombre_columna <- "tipo"
datos_sin_vacios[[nombre_columna]] <- tolower (datos_sin_vacios[[nombre_columna]]) 

datos_sin_vacios[[nombre_columna]] <- capitalize(datos_sin_vacios[[nombre_columna]])  # Convertir todo a minúsculas
datos_sin_vacios

# A tibble: 72 × 7
   tipo    `id-planta` capacidad instalada …¹ `%ci` generación brutal (g…² `%gb`
   <chr>   <chr>                        <dbl> <dbl>                  <dbl> <dbl>
 1 Hidroe… acp                          60     1.51                 274.    2.32
 2 Hidroe… AES Panama                  482.   12.1                 1523.   12.9 
 3 Hidroe… AES CHANGU…                 222.    5.58                1058.    8.93
 4 Hidroe… ALTO VALLE…                  15.5   0.39                  75.9   0.64
 5 Hidroe… cafe de el…                   0.53  0.01                   1.64  0.01
 6 Hidroe… CALDERA EN…                  19.8   0.5                  100.    0.84
 7 Hidroe… CELSIA  AL…                  92.5   2.32                 372.    3.14
 8 Hidroe… CELSIA  BO…                  25.3   0.64                  87.1   0.74
 9 Hidroe… CORP. ENER…                  19.8   0.5                   93.4   0.79
10 Hidroe… EISA  ELEC…                  84.6   2.13                 515.    4.35
# ℹ 62 more rows
# ℹ abbreviated names: ¹​`capacidad instalada mw`, ²​`generación brutal (gwh)`
# ℹ 1 more variable: `capacidad firme mw` <dbl>

nombre_columna2 <- "id-planta"

# Capitalize the first letter of each word
datos_sin_vacios[[nombre_columna2]] <- tolower (datos_sin_vacios[[nombre_columna2]]) 
datos_sin_vacios[[nombre_columna2]] <- capitalize(datos_sin_vacios[[nombre_columna2]])  # Convertir todo a minúsculas
datos_sin_vacios

# A tibble: 72 × 7
   tipo    `id-planta` capacidad instalada …¹ `%ci` generación brutal (g…² `%gb`
   <chr>   <chr>                        <dbl> <dbl>                  <dbl> <dbl>
 1 Hidroe… Acp                          60     1.51                 274.    2.32
 2 Hidroe… Aes panama                  482.   12.1                 1523.   12.9 
 3 Hidroe… Aes changu…                 222.    5.58                1058.    8.93
 4 Hidroe… Alto valle…                  15.5   0.39                  75.9   0.64
 5 Hidroe… Cafe de el…                   0.53  0.01                   1.64  0.01
 6 Hidroe… Caldera en…                  19.8   0.5                  100.    0.84
 7 Hidroe… Celsia  al…                  92.5   2.32                 372.    3.14
 8 Hidroe… Celsia  bo…                  25.3   0.64                  87.1   0.74
 9 Hidroe… Corp. ener…                  19.8   0.5                   93.4   0.79
10 Hidroe… Eisa  elec…                  84.6   2.13                 515.    4.35
# ℹ 62 more rows
# ℹ abbreviated names: ¹​`capacidad instalada mw`, ²​`generación brutal (gwh)`
# ℹ 1 more variable: `capacidad firme mw` <dbl>

Variables Categoricas

Variables Categoricas la función sapply() para verificar el tipo de datos de cada columna. La función is.numeric se utiliza para verificar si una columna tiene el tipo de datos “numeric” con el signo ! le indicamos que nos muestre los q no son numéricos. Las columnas que no contienen números se almacenan en la variable columnas_categoricas.

columnas_categoricas <- sapply(datos_sin_vacios, function(col) all(!is.numeric(col)))

datos_categoricos<- datos_sin_vacios[, columnas_categoricas]
datos_categoricos

# A tibble: 72 × 2
   tipo            `id-planta`              
   <chr>           <chr>                    
 1 Hidroelectricas Acp                      
 2 Hidroelectricas Aes panama               
 3 Hidroelectricas Aes changuinola          
 4 Hidroelectricas Alto valle   cochea      
 5 Hidroelectricas Cafe de eleta            
 6 Hidroelectricas Caldera energy           
 7 Hidroelectricas Celsia  alternergy       
 8 Hidroelectricas Celsia  bontex           
 9 Hidroelectricas Corp. energia istmo      
10 Hidroelectricas Eisa  electron investment
# ℹ 62 more rows

Variables Numéricas

la función sapply() para verificar el tipo de datos de cada columna. Si una columna tiene el tipo de datos “numeric”, entonces se considera que solo contiene números.

Las columnas que solo contienen números se almacenan en la variable columnas_numericas.

columnas_numericas <- sapply(datos_sin_vacios, function(col) all(is.numeric(col)))

datos_numericos <- datos_sin_vacios[, columnas_numericas]
datos_numericos

# A tibble: 72 × 5
   `capacidad instalada mw` `%ci` `generación brutal (gwh)` `%gb`
                      <dbl> <dbl>                     <dbl> <dbl>
 1                    60     1.51                    274.    2.32
 2                   482.   12.1                    1523.   12.9 
 3                   222.    5.58                   1058.    8.93
 4                    15.5   0.39                     75.9   0.64
 5                     0.53  0.01                      1.64  0.01
 6                    19.8   0.5                     100.    0.84
 7                    92.5   2.32                    372.    3.14
 8                    25.3   0.64                     87.1   0.74
 9                    19.8   0.5                      93.4   0.79
10                    84.6   2.13                    515.    4.35
# ℹ 62 more rows
# ℹ 1 more variable: `capacidad firme mw` <dbl>

Elinimar columnas de %

En este código, el paquete readxl se carga utilizando library(). Luego, el archivo de Excel se lee en R utilizando la función read_excel(). La función de indexación se utiliza para seleccionar todas las columnas excepto la que se desea eliminar. La columna a eliminar se especifica utilizando la función %in%.

datos_sin_vacios <- datos_sin_vacios[, !colnames(datos_sin_vacios) %in% "%ci"]
datos_sin_vacios

# A tibble: 72 × 6
   tipo          `id-planta` capacidad instalada …¹ generación brutal (g…² `%gb`
   <chr>         <chr>                        <dbl>                  <dbl> <dbl>
 1 Hidroelectri… Acp                          60                    274.    2.32
 2 Hidroelectri… Aes panama                  482.                  1523.   12.9 
 3 Hidroelectri… Aes changu…                 222.                  1058.    8.93
 4 Hidroelectri… Alto valle…                  15.5                   75.9   0.64
 5 Hidroelectri… Cafe de el…                   0.53                   1.64  0.01
 6 Hidroelectri… Caldera en…                  19.8                  100.    0.84
 7 Hidroelectri… Celsia  al…                  92.5                  372.    3.14
 8 Hidroelectri… Celsia  bo…                  25.3                   87.1   0.74
 9 Hidroelectri… Corp. ener…                  19.8                   93.4   0.79
10 Hidroelectri… Eisa  elec…                  84.6                  515.    4.35
# ℹ 62 more rows
# ℹ abbreviated names: ¹​`capacidad instalada mw`, ²​`generación brutal (gwh)`
# ℹ 1 more variable: `capacidad firme mw` <dbl>

datos_sin_vacios <- datos_sin_vacios[, !colnames(datos_sin_vacios) %in% "%gb"]
datos_sin_vacios

# A tibble: 72 × 5
   tipo            `id-planta`     capacidad instalada …¹ generación brutal (g…²
   <chr>           <chr>                            <dbl>                  <dbl>
 1 Hidroelectricas Acp                              60                    274.  
 2 Hidroelectricas Aes panama                      482.                  1523.  
 3 Hidroelectricas Aes changuinola                 222.                  1058.  
 4 Hidroelectricas Alto valle   c…                  15.5                   75.9 
 5 Hidroelectricas Cafe de eleta                     0.53                   1.64
 6 Hidroelectricas Caldera energy                   19.8                  100.  
 7 Hidroelectricas Celsia  altern…                  92.5                  372.  
 8 Hidroelectricas Celsia  bontex                   25.3                   87.1 
 9 Hidroelectricas Corp. energia …                  19.8                   93.4 
10 Hidroelectricas Eisa  electron…                  84.6                  515.  
# ℹ 62 more rows
# ℹ abbreviated names: ¹​`capacidad instalada mw`, ²​`generación brutal (gwh)`
# ℹ 1 more variable: `capacidad firme mw` <dbl>
